…
``` r
library(p.post)
p1 <- 0.3
p2 <- seq(0.5, 0.8, 0.1)
post_prob <- calc_post(80, p1, p2)
```

The resulting data frame is shown below.

``` r
post_prob
#> # A tibble: 320 × 5
#>        n  rate  prob   res post_prob
#>    <int> <dbl> <dbl> <int>     <dbl>
#>  1     1   0.3   0.5     1     0.91 
#>  2     2   0.3   0.5     1     0.784
#>  3     3   0.3   0.5     1     0.652
#>  4     4   0.3   0.5     1     0.528
#>  5     5   0.3   0.5     2     0.744
#>  6     6   0.3   0.5     2     0.647
#>  7     7   0.3   0.5     2     0.552
#>  8     8   0.3   0.5     3     0.730
#>  9     9   0.3   0.5     3     0.650
#> 10    10   0.3   0.5     3     0.570
#> # ℹ 310 more rows
```
…
